\relax 
\@writefile{toc}{\contentsline {part}{I\hspace  {1em}Aritmetic\u {a}}{5}{part.1}}
\@setckpt{aritmetica}{
\setcounter{page}{8}
\setcounter{equation}{0}
\setcounter{enumi}{0}
\setcounter{enumii}{0}
\setcounter{enumiii}{0}
\setcounter{enumiv}{0}
\setcounter{footnote}{0}
\setcounter{mpfootnote}{0}
\setcounter{part}{1}
\setcounter{chapter}{0}
\setcounter{section}{0}
\setcounter{subsection}{0}
\setcounter{subsubsection}{0}
\setcounter{paragraph}{0}
\setcounter{subparagraph}{0}
\setcounter{figure}{0}
\setcounter{table}{0}
\setcounter{parentequation}{0}
\setcounter{subfigure}{0}
\setcounter{lofdepth}{1}
\setcounter{subtable}{0}
\setcounter{lotdepth}{1}
\setcounter{LT@tables}{0}
\setcounter{LT@chunks}{0}
\setcounter{vrcnt}{0}
\setcounter{Item}{0}
\setcounter{Hfootnote}{0}
\setcounter{section@level}{0}
}
