\relax 
\ifx\hyper@anchor\@undefined
\global \let \oldcontentsline\contentsline
\gdef \contentsline#1#2#3#4{\oldcontentsline{#1}{#2}{#3}}
\global \let \oldnewlabel\newlabel
\gdef \newlabel#1#2{\newlabelxx{#1}#2}
\gdef \newlabelxx#1#2#3#4#5#6{\oldnewlabel{#1}{{#2}{#3}}}
\AtEndDocument{\let \contentsline\oldcontentsline
\let \newlabel\oldnewlabel}
\else
\global \let \hyper@last\relax 
\fi

\@input{paginaTitlu.aux}
\@newglossary{main}{glg}{gls}{glo}
\@istfilename{math02a.ist}
\@glsorder{word}
\select@language{romanian}
\@writefile{toc}{\select@language{romanian}}
\@writefile{lof}{\select@language{romanian}}
\@writefile{lot}{\select@language{romanian}}
\select@language{romanian}
\@writefile{toc}{\select@language{romanian}}
\@writefile{lof}{\select@language{romanian}}
\@writefile{lot}{\select@language{romanian}}
\@writefile{toc}{\contentsline {chapter}{Cuprins}{2}{chapter*.1}}
\@writefile{toc}{\contentsline {chapter}{Lista f\unhbox \voidb@x \hbox {}igurilor}{3}{chapter*.2}}
\@input{introducere.aux}
\@writefile{toc}{\contentsline {part}{I\hspace  {1em}Aritmetic\u {a}}{5}{part.1}}
\@writefile{toc}{\contentsline {chapter}{\numberline {1}Ce este un num\u {a}r ?}{8}{chapter.1}}
\@writefile{lof}{\addvspace {10\p@ }}
\@writefile{lot}{\addvspace {10\p@ }}
\@writefile{toc}{\contentsline {part}{Glosar}{8}{definitie.1}}
\newlabel{LastPage}{{}{8}{}{page.8}{}}
\ttl@finishall
