This is BibTeX, Version 0.99c (TeX Live 2009/Debian)
The top-level auxiliary file: math02a.aux
A level-1 auxiliary file: paginaTitlu.aux
A level-1 auxiliary file: introducere.aux
The style file: plain.bst
I found no \citation commands---while reading file math02a.aux
Database file #1: bibliografie.bib
You're missing a field name---line 85 of file bibliografie.bib
 : 
 : %  AUTHOR =       {Of\mbox{}f\mbox{}icial website},
(Error may have been on previous line)
I'm skipping whatever remains of this entry
You're missing a field name---line 90 of file bibliografie.bib
 : 
 : %  AUTHOR =       {\textsc{Ste'ffensen}, J. F.},
(Error may have been on previous line)
I'm skipping whatever remains of this entry
You're missing a field name---line 97 of file bibliografie.bib
 : 
 : %  AUTHOR =       {\textsc{Korgano'ff}, A.},
(Error may have been on previous line)
I'm skipping whatever remains of this entry
You're missing a field name---line 104 of file bibliografie.bib
 : 
 : %  AUTHOR =       {\textsc{Roeder}, K. R.},
(Error may have been on previous line)
I'm skipping whatever remains of this entry
You've used 0 entries,
            2118 wiz_defined-function locations,
            499 strings with 4029 characters,
and the built_in function-call counts, 18 in all, are:
= -- 0
> -- 0
< -- 0
+ -- 0
- -- 0
* -- 2
:= -- 7
add.period$ -- 0
call.type$ -- 0
change.case$ -- 0
chr.to.int$ -- 0
cite$ -- 0
duplicate$ -- 0
empty$ -- 1
format.name$ -- 0
if$ -- 1
int.to.chr$ -- 0
int.to.str$ -- 0
missing$ -- 0
newline$ -- 3
num.names$ -- 0
pop$ -- 0
preamble$ -- 1
purify$ -- 0
quote$ -- 0
skip$ -- 1
stack$ -- 0
substring$ -- 0
swap$ -- 0
text.length$ -- 0
text.prefix$ -- 0
top$ -- 0
type$ -- 0
warning$ -- 0
while$ -- 0
width$ -- 0
write$ -- 2
(There were 5 error messages)
