\select@language {romanian}
\select@language {romanian}
\contentsline {chapter}{Cuprins}{2}{chapter*.1}
\contentsline {chapter}{Lista f\unhbox \voidb@x \hbox {}igurilor}{3}{chapter*.2}
\contentsline {chapter}{Introducere}{4}{chapter*.3}
\contentsline {part}{I\hspace {1em}Aritmetic\u {a}}{5}{part.1}
\contentsline {chapter}{\numberline {1}Ce este un num\u {a}r ?}{8}{chapter.1}
\contentsline {part}{Glosar}{8}{definitie.1}
\contentsfinish 
